"{\n    \"items\": [\n        {\n            \"external_urls\": {\n                \"spotify\": \"https://open.spotify.com/artist/1URnnhqYAYcrqrcwql10ft\"\n            },\n            \"followers\": {\n                \"href\": null,\n                \"total\": 8984482\n            },\n            \"genres\": [\n                \"atl hip hop\",\n                \"rap\",\n                \"trap\"\n            ],\n            \"href\": \"https://api.spotify.com/v1/artists/1URnnhqYAYcrqrcwql10ft\",\n            \"id\": \"1URnnhqYAYcrqrcwql10ft\",\n            \"images\": [\n                {\n                    \"height\": 640,\n                    \"url\": \"https://i.scdn.co/image/fcbc4560c03099fec55cf55054932ca3808e33d3\",\n                    \"width\": 640\n                },\n                {\n                    \"height\": 320,\n                    \"url\": \"https://i.scdn.co/image/a84657e5ec7be5af3e2bf896ad0927789262b296\",\n                    \"width\": 320\n                },\n                {\n                    \"height\": 160,\n                    \"url\": \"https://i.scdn.co/image/4882ead0ff08608c276c98cf11bcfb87cb59fd1c\",\n                    \"width\": 160\n                }\n            ],\n            \"name\": \"21 Savage\",\n            \"popularity\": 88,\n            \"type\": \"artist\",\n            \"uri\": \"spotify:artist:1URnnhqYAYcrqrcwql10ft\"\n        },\n        {\n            \"external_urls\": {\n                \"spotify\": \"https://open.spotify.com/artist/6QtgPSJPSzcnn7dPZ4VINp\"\n            },\n            \"followers\": {\n                \"href\": null,\n                \"total\": 661940\n            },\n            \"genres\": [\n                \"chicago rap\"\n            ],\n            \"href\": \"https://api.spotify.com/v1/artists/6QtgPSJPSzcnn7dPZ4VINp\",\n            \"id\": \"6QtgPSJPSzcnn7dPZ4VINp\",\n            \"images\": [\n                {\n                    \"height\": 640,\n                    \"url\": \"https://i.scdn.co/image/5a3753c78eac69bec2704b5de21420fa84402dba\",\n                    \"width\": 640\n                },\n                {\n                    \"height\": 320,\n                    \"url\": \"https://i.scdn.co/image/f96978fce3f3d6f1d6708c0145f431ec97920693\",\n                    \"width\": 320\n                },\n                {\n                    \"height\": 160,\n                    \"url\": \"https://i.scdn.co/image/aaa2d4a9ce9edf2a94b71e41020654ee9e88c9f1\",\n                    \"width\": 160\n                }\n            ],\n            \"name\": \"King Von\",\n            \"popularity\": 81,\n            \"type\": \"artist\",\n            \"uri\": \"spotify:artist:6QtgPSJPSzcnn7dPZ4VINp\"\n        },\n        {\n            \"external_urls\": {\n                \"spotify\": \"https://open.spotify.com/artist/0eDvMgVFoNV3TpwtrVCoTj\"\n            },\n            \"followers\": {\n                \"href\": null,\n                \"total\": 3421548\n            },\n            \"genres\": [\n                \"brooklyn drill\"\n            ],\n            \"href\": \"https://api.spotify.com/v1/artists/0eDvMgVFoNV3TpwtrVCoTj\",\n            \"id\": \"0eDvMgVFoNV3TpwtrVCoTj\",\n            \"images\": [\n                {\n                    \"height\": 640,\n                    \"url\": \"https://i.scdn.co/image/dec62931945371fd22f29c436ca61dea03415556\",\n                    \"width\": 640\n                },\n                {\n                    \"height\": 320,\n                    \"url\": \"https://i.scdn.co/image/452b8e2959c68878477ba110bc517449023a921d\",\n                    \"width\": 320\n                },\n                {\n                    \"height\": 160,\n                    \"url\": \"https://i.scdn.co/image/4d68f134b9ccfc7b9c22b4ed0abc98dccecc5fb2\",\n                    \"width\": 160\n                }\n            ],\n            \"name\": \"Pop Smoke\",\n            \"popularity\": 94,\n            \"type\": \"artist\",\n            \"uri\": \"spotify:artist:0eDvMgVFoNV3TpwtrVCoTj\"\n        },\n        {\n            \"external_urls\": {\n                \"spotify\": \"https://open.spotify.com/artist/1Mxqyy3pSjf8kZZL4QVxS0\"\n            },\n            \"followers\": {\n                \"href\": null,\n                \"total\": 4446803\n            },\n            \"genres\": [\n                \"adult standards\",\n                \"easy listening\",\n                \"lounge\"\n            ],\n            \"href\": \"https://api.spotify.com/v1/artists/1Mxqyy3pSjf8kZZL4QVxS0\",\n            \"id\": \"1Mxqyy3pSjf8kZZL4QVxS0\",\n            \"images\": [\n                {\n                    \"height\": 650,\n                    \"url\": \"https://i.scdn.co/image/fc4e0f474fb4c4cb83617aa884dc9fd9822d4411\",\n                    \"width\": 999\n                },\n                {\n                    \"height\": 416,\n                    \"url\": \"https://i.scdn.co/image/883de3e492364891543bc0313ffe516626778a16\",\n                    \"width\": 640\n                },\n                {\n                    \"height\": 130,\n                    \"url\": \"https://i.scdn.co/image/810f29651e05c9eae5a31f8151c2e05dc46390f9\",\n                    \"width\": 200\n                },\n                {\n                    \"height\": 42,\n                    \"url\": \"https://i.scdn.co/image/a283ecdc6252ae305c53d283846cae2e8b22e94c\",\n                    \"width\": 64\n                }\n            ],\n            \"name\": \"Frank Sinatra\",\n            \"popularity\": 87,\n            \"type\": \"artist\",\n            \"uri\": \"spotify:artist:1Mxqyy3pSjf8kZZL4QVxS0\"\n        },\n        {\n            \"external_urls\": {\n                \"spotify\": \"https://open.spotify.com/artist/6AUl0ykLLpvTktob97x9hO\"\n            },\n            \"followers\": {\n                \"href\": null,\n                \"total\": 2177252\n            },\n            \"genres\": [\n                \"detroit hip hop\",\n                \"detroit trap\",\n                \"hip hop\",\n                \"pop rap\",\n                \"rap\",\n                \"southern hip hop\",\n                \"trap\"\n            ],\n            \"href\": \"https://api.spotify.com/v1/artists/6AUl0ykLLpvTktob97x9hO\",\n            \"id\": \"6AUl0ykLLpvTktob97x9hO\",\n            \"images\": [\n                {\n                    \"height\": 640,\n                    \"url\": \"https://i.scdn.co/image/4d2f7d253ca05019a27cfe6fcdf4e2cb8312317f\",\n                    \"width\": 640\n                },\n                {\n                    \"height\": 320,\n                    \"url\": \"https://i.scdn.co/image/9957a084b84bcad9091d526f536dd6bf805c8e85\",\n                    \"width\": 320\n                },\n                {\n                    \"height\": 160,\n                    \"url\": \"https://i.scdn.co/image/8c0609f3a68f87a3006a58b2cfe9b5d5f5787a6e\",\n                    \"width\": 160\n                }\n            ],\n            \"name\": \"Tee Grizzley\",\n            \"popularity\": 72,\n            \"type\": \"artist\",\n            \"uri\": \"spotify:artist:6AUl0ykLLpvTktob97x9hO\"\n        },\n        {\n            \"external_urls\": {\n                \"spotify\": \"https://open.spotify.com/artist/3TVXtAsR1Inumwj472S9r4\"\n            },\n            \"followers\": {\n                \"href\": null,\n                \"total\": 51838943\n            },\n            \"genres\": [\n                \"canadian hip hop\",\n                \"canadian pop\",\n                \"hip hop\",\n                \"pop rap\",\n                \"rap\",\n                \"toronto rap\"\n            ],\n            \"href\": \"https://api.spotify.com/v1/artists/3TVXtAsR1Inumwj472S9r4\",\n            \"id\": \"3TVXtAsR1Inumwj472S9r4\",\n            \"images\": [\n                {\n                    \"height\": 640,\n                    \"url\": \"https://i.scdn.co/image/60cfab40c6bb160a1906be45276829d430058005\",\n                    \"width\": 640\n                },\n                {\n                    \"height\": 320,\n                    \"url\": \"https://i.scdn.co/image/5ea794cf832550943d5f8122afcf5f23ee9d85b7\",\n                    \"width\": 320\n                },\n                {\n                    \"height\": 160,\n                    \"url\": \"https://i.scdn.co/image/8eaace74aaca82eaccde400bbcab2653b9cf86e1\",\n                    \"width\": 160\n                }\n            ],\n            \"name\": \"Drake\",\n            \"popularity\": 97,\n            \"type\": \"artist\",\n            \"uri\": \"spotify:artist:3TVXtAsR1Inumwj472S9r4\"\n        },\n        {\n            \"external_urls\": {\n                \"spotify\": \"https://open.spotify.com/artist/5abSRg0xN1NV3gLbuvX24M\"\n            },\n            \"followers\": {\n                \"href\": null,\n                \"total\": 2358459\n            },\n            \"genres\": [\n                \"arab pop\",\n                \"belly dance\",\n                \"egyptian pop\",\n                \"persian pop\",\n                \"rif\"\n            ],\n            \"href\": \"https://api.spotify.com/v1/artists/5abSRg0xN1NV3gLbuvX24M\",\n            \"id\": \"5abSRg0xN1NV3gLbuvX24M\",\n            \"images\": [\n                {\n                    \"height\": 640,\n                    \"url\": \"https://i.scdn.co/image/ee11ffb4c0f334e4c958ed051bbaf5f720751c9d\",\n                    \"width\": 640\n                },\n                {\n                    \"height\": 320,\n                    \"url\": \"https://i.scdn.co/image/c4818b1f9d0c7a793d421b51c63d82c8c768795c\",\n                    \"width\": 320\n                },\n                {\n                    \"height\": 160,\n                    \"url\": \"https://i.scdn.co/image/f3faab75ae00902f4cbb00e00a9876fbcba41a29\",\n                    \"width\": 160\n                }\n            ],\n            \"name\": \"Amr Diab\",\n            \"popularity\": 62,\n            \"type\": \"artist\",\n            \"uri\": \"spotify:artist:5abSRg0xN1NV3gLbuvX24M\"\n        },\n        {\n            \"external_urls\": {\n                \"spotify\": \"https://open.spotify.com/artist/7rkW85dBwwrJtlHRDkJDAC\"\n            },\n            \"followers\": {\n                \"href\": null,\n                \"total\": 2312883\n            },\n            \"genres\": [\n                \"canadian hip hop\",\n                \"hip hop\",\n                \"melodic rap\",\n                \"pop rap\",\n                \"rap\",\n                \"toronto rap\",\n                \"trap\"\n            ],\n            \"href\": \"https://api.spotify.com/v1/artists/7rkW85dBwwrJtlHRDkJDAC\",\n            \"id\": \"7rkW85dBwwrJtlHRDkJDAC\",\n            \"images\": [\n                {\n                    \"height\": 640,\n                    \"url\": \"https://i.scdn.co/image/d819f806207d520282f92cd7a8bb0438ddfff4c1\",\n                    \"width\": 640\n                },\n                {\n                    \"height\": 320,\n                    \"url\": \"https://i.scdn.co/image/8108a07afbaeebfde0663f9443c2d6000c514c21\",\n                    \"width\": 320\n                },\n                {\n                    \"height\": 160,\n                    \"url\": \"https://i.scdn.co/image/2215ac3b2bbed64b575da1917a4bf892679142fd\",\n                    \"width\": 160\n                }\n            ],\n            \"name\": \"NAV\",\n            \"popularity\": 86,\n            \"type\": \"artist\",\n            \"uri\": \"spotify:artist:7rkW85dBwwrJtlHRDkJDAC\"\n        },\n        {\n            \"external_urls\": {\n                \"spotify\": \"https://open.spotify.com/artist/0dwFxqYkvZLSA6U6XfQcDV\"\n            },\n            \"followers\": {\n                \"href\": null,\n                \"total\": 624211\n            },\n            \"genres\": [\n                \"arab pop\",\n                \"classic arab pop\",\n                \"dabke\",\n                \"lebanese pop\"\n            ],\n            \"href\": \"https://api.spotify.com/v1/artists/0dwFxqYkvZLSA6U6XfQcDV\",\n            \"id\": \"0dwFxqYkvZLSA6U6XfQcDV\",\n            \"images\": [\n                {\n                    \"height\": 640,\n                    \"url\": \"https://i.scdn.co/image/ab67616d0000b2730110ca8f52f56308a74ec74d\",\n                    \"width\": 640\n                },\n                {\n                    \"height\": 300,\n                    \"url\": \"https://i.scdn.co/image/ab67616d00001e020110ca8f52f56308a74ec74d\",\n                    \"width\": 300\n                },\n                {\n                    \"height\": 64,\n                    \"url\": \"https://i.scdn.co/image/ab67616d000048510110ca8f52f56308a74ec74d\",\n                    \"width\": 64\n                }\n            ],\n            \"name\": \"Fairuz\",\n            \"popularity\": 59,\n            \"type\": \"artist\",\n            \"uri\": \"spotify:artist:0dwFxqYkvZLSA6U6XfQcDV\"\n        },\n        {\n            \"external_urls\": {\n                \"spotify\": \"https://open.spotify.com/artist/15iVAtD3s3FsQR4w1v6M0P\"\n            },\n            \"followers\": {\n                \"href\": null,\n                \"total\": 2498197\n            },\n            \"genres\": [\n                \"chicago drill\",\n                \"chicago rap\",\n                \"drill\",\n                \"hip hop\",\n                \"pop rap\",\n                \"rap\",\n                \"southern hip hop\",\n                \"trap\",\n                \"underground hip hop\",\n                \"vapor trap\"\n            ],\n            \"href\": \"https://api.spotify.com/v1/artists/15iVAtD3s3FsQR4w1v6M0P\",\n            \"id\": \"15iVAtD3s3FsQR4w1v6M0P\",\n            \"images\": [\n                {\n                    \"height\": 640,\n                    \"url\": \"https://i.scdn.co/image/0d37568c7a17bc9139d21f3f8d4a4de797672360\",\n                    \"width\": 640\n                },\n                {\n                    \"height\": 320,\n                    \"url\": \"https://i.scdn.co/image/a8a641279daee82bd8a74a70f88371fb529ff6f9\",\n                    \"width\": 320\n                },\n                {\n                    \"height\": 160,\n                    \"url\": \"https://i.scdn.co/image/ef49564daa3923d27eb782d8cad4d1de5646fb7d\",\n                    \"width\": 160\n                }\n            ],\n            \"name\": \"Chief Keef\",\n            \"popularity\": 76,\n            \"type\": \"artist\",\n            \"uri\": \"spotify:artist:15iVAtD3s3FsQR4w1v6M0P\"\n        }\n    ],\n    \"total\": 50,\n    \"limit\": 10,\n    \"offset\": 0,\n    \"href\": \"https://api.spotify.com/v1/me/top/artists?limit=10&offset=0\",\n    \"previous\": null,\n    \"next\": \"https://api.spotify.com/v1/me/top/artists?limit=10&offset=10\"\n}"